<svg width="129" height="129" viewBox="0 0 129 129" fill="none" xmlns="http://www.w3.org/2000/svg">
<rect width="129" height="129" fill="white"/>
<g clip-path="url(#clip0)">
<path d="M24.7001 43C26.1001 42.3 27.7001 42.1 29.2001 42.6L43.6001 47.4C44.6001 48 50.0001 50 59.8001 47.6C70.5001 45 91.6001 40.7 98.9001 39.2L98.2001 35.8L72.8001 32.2C70.0001 31.8 65.6001 32 62.8001 32.5L28.0001 39.2H27.9001C27.7001 39.2 27.6001 39.2 27.4001 39.2C23.4001 39.2 19.9001 41.8 18.7001 45.5C18.0001 47.8 18.2001 50.3 19.3001 52.5C19.9001 53.6 20.6001 54.6 21.6001 55.4L22.6001 56.2L21.6001 57C20.1001 58.1 19.1001 59.7 18.5001 61.4C17.8001 63.7 18.0001 66.2 19.1001 68.4C19.7001 69.5 20.5001 70.5 21.6001 71.4L22.6001 72.2L21.6001 73C20.2001 74.1 19.1001 75.7 18.5001 77.4C17.8001 79.7 18.0001 82.2 19.1001 84.4C20.2001 86.6 22.1001 88.2 24.5001 88.9L49.5001 96.9C50.7001 97.3 52.8001 97.4 54.0001 97.1L96.9001 87.3L96.5001 85.7C96.4001 85.3 96.2001 84.9 95.8001 84.7C95.4001 84.5 95.0001 84.4 94.6001 84.5L54.7001 93.6C53.1001 94 50.7001 93.9 49.1001 93.4L25.4001 85.8C23.9001 85.3 22.6001 84.3 21.9001 82.8C21.2001 81.4 21.0001 79.8 21.5001 78.2C22.5001 75.1 25.9001 73.3 29.0001 74.3V74.4C30.2001 74.7 33.5001 75.7 44.2001 79.1L49.4001 80.8C50.6001 81.2 52.7001 81.3 53.9001 81L96.8001 71.2L96.4001 69.6C96.3001 69.2 96.1001 68.8 95.7001 68.6C95.3001 68.4 94.9001 68.3 94.5001 68.4L54.6001 77.5C53.0001 77.9 50.6001 77.8 49.0001 77.3L25.4001 69.9C23.9001 69.4 22.6001 68.4 21.9001 66.9C21.2001 65.5 21.0001 63.9 21.5001 62.3C22.5001 59.2 25.9001 57.4 29.0001 58.4V58.5C30.1001 58.8 33.2001 59.7 42.7001 62.8L49.6001 65C50.8001 65.4 52.9001 65.5 54.1001 65.2L97.0001 55.5L96.6001 53.9C96.5001 53.5 96.2001 53.1 95.9001 52.9C95.5001 52.7 95.1001 52.6 94.7001 52.7L54.8001 61.8C53.2001 62.2 50.8001 62.1 49.2001 61.6L25.6001 54C24.1001 53.5 22.8001 52.5 22.1001 51C21.4001 49.6 21.2001 48 21.7001 46.4C22.2001 45 23.3001 43.8 24.7001 43Z" fill="#0F2CA7"/>
<path d="M95 98C103.284 98 110 91.2843 110 83C110 74.7157 103.284 68 95 68C86.7157 68 80 74.7157 80 83C80 91.2843 86.7157 98 95 98Z" fill="#B7E92B"/>
<path d="M93.6 85.5V84.7C93.6 84.1 93.7 83.6 94 83.2C94.2 82.8 94.7 82.4 95.2 82C95.7 81.7 96 81.4 96.2 81.2C96.4 81 96.5 80.7 96.5 80.4C96.5 80.2 96.4 80 96.2 79.8C96 79.7 95.7 79.6 95.3 79.6C94.4 79.6 93.4 79.9 92.2 80.5L91 78.2C92.5 77.4 94 77 95.6 77C96.9 77 97.9 77.3 98.7 77.9C99.4 78.5 99.8 79.3 99.8 80.2C99.8 80.9 99.6 81.5 99.3 82C99 82.5 98.4 83 97.7 83.5C97.1 83.9 96.7 84.2 96.5 84.4C96.3 84.6 96.3 84.8 96.3 85.1V85.5H93.6ZM93.3 88.5C93.3 88 93.5 87.5 93.8 87.3C94.1 87 94.6 86.9 95.2 86.9C95.8 86.9 96.2 87 96.5 87.3C96.8 87.6 97 88 97 88.5C97 89 96.8 89.4 96.5 89.7C96.2 90 95.7 90.1 95.2 90.1C94.6 90.1 94.2 90 93.8 89.7C93.4 89.5 93.3 89.1 93.3 88.5Z" fill="#36E232"/>
</g>
<defs>
<clipPath id="clip0">
<rect width="92" height="66" fill="white" transform="translate(18 32)"/>
</clipPath>
</defs>
</svg>
