<svg width="32" height="20" viewBox="0 0 32 20" fill="none" xmlns="http://www.w3.org/2000/svg">
<path d="M1 1H31" stroke="white" stroke-width="2" stroke-linecap="round"/>
<path d="M1 10H31" stroke="white" stroke-width="2" stroke-linecap="round"/>
<path d="M1 19H31" stroke="white" stroke-width="2" stroke-linecap="round"/>
</svg>
