<svg width="195" height="53" viewBox="0 0 195 53" fill="none" xmlns="http://www.w3.org/2000/svg">
<path d="M126.287 12.6803H129.286L140.59 39.6186H136.899L134.188 33.0155H120.923L118.154 39.6186H114.579L126.287 12.6803ZM127.729 16.7707H127.671L122.134 30.0353H132.977L127.729 16.7707Z" fill="white"/>
<path d="M143.474 21.7961H146.415V24.3672H146.473C147.28 23.3738 148.203 22.6726 149.299 22.1467C150.337 21.6208 151.548 21.3286 152.817 21.3286C154.201 21.3286 155.47 21.5624 156.566 22.0298C157.719 22.4973 158.7 23.1401 159.507 24.0166C160.315 24.8347 160.949 25.8281 161.411 26.9968C161.872 28.1654 162.103 29.3926 162.103 30.7366C162.103 32.0805 161.872 33.3077 161.411 34.4764C160.949 35.645 160.315 36.58 159.565 37.4565C158.758 38.2746 157.835 38.9758 156.739 39.4433C155.643 39.9108 154.49 40.1445 153.278 40.1445C151.721 40.1445 150.337 39.7939 149.126 39.0927C147.915 38.3915 147.049 37.5149 146.53 36.5216H146.473V48.3837H143.531V21.7961H143.474ZM146.357 30.7366C146.357 31.6715 146.473 32.548 146.819 33.3661C147.107 34.1842 147.511 34.8854 148.088 35.4697C148.664 36.0541 149.299 36.5216 150.049 36.8722C150.798 37.2228 151.664 37.3981 152.644 37.3981C153.624 37.3981 154.432 37.2228 155.239 36.8722C155.989 36.5216 156.681 36.0541 157.2 35.4697C157.777 34.8854 158.181 34.1842 158.469 33.3661C158.758 32.548 158.931 31.6715 158.931 30.7366C158.931 29.8016 158.758 28.9251 158.469 28.107C158.181 27.2889 157.777 26.5877 157.2 26.0034C156.624 25.419 155.989 24.9515 155.239 24.6009C154.49 24.2503 153.624 24.075 152.644 24.075C151.664 24.075 150.856 24.2503 150.049 24.6009C149.299 24.9515 148.607 25.419 148.088 26.0034C147.511 26.5877 147.107 27.2889 146.819 28.107C146.53 28.9251 146.357 29.8016 146.357 30.7366Z" fill="white"/>
<path d="M166.429 21.7961H169.37V24.3672H169.428C170.235 23.3738 171.158 22.6726 172.254 22.1467C173.292 21.6208 174.503 21.3286 175.772 21.3286C177.156 21.3286 178.425 21.5624 179.521 22.0298C180.675 22.4973 181.655 23.1401 182.462 24.0166C183.27 24.8347 183.904 25.8281 184.366 26.9968C184.827 28.1654 185.058 29.3926 185.058 30.7366C185.058 32.0805 184.827 33.3077 184.366 34.4764C183.904 35.645 183.27 36.58 182.52 37.4565C181.713 38.2746 180.79 38.9758 179.694 39.4433C178.598 39.9108 177.445 40.1445 176.234 40.1445C174.676 40.1445 173.292 39.7939 172.081 39.0927C170.87 38.3915 170.005 37.5149 169.486 36.5216H169.37V48.3837H166.429V21.7961ZM169.37 30.7366C169.37 31.6715 169.485 32.548 169.832 33.3661C170.12 34.1842 170.524 34.8854 171.1 35.4697C171.677 36.0541 172.312 36.5216 173.061 36.8722C173.811 37.2228 174.676 37.3981 175.657 37.3981C176.637 37.3981 177.445 37.2228 178.252 36.8722C179.002 36.5216 179.694 36.0541 180.213 35.4697C180.79 34.8854 181.194 34.1842 181.482 33.3661C181.77 32.548 181.943 31.6715 181.943 30.7366C181.943 29.8016 181.77 28.9251 181.482 28.107C181.194 27.2889 180.79 26.5877 180.213 26.0034C179.636 25.419 179.002 24.9515 178.252 24.6009C177.502 24.2503 176.637 24.075 175.657 24.075C174.676 24.075 173.869 24.2503 173.061 24.6009C172.312 24.9515 171.619 25.419 171.1 26.0034C170.524 26.5877 170.12 27.2889 169.832 28.107C169.485 28.9251 169.37 29.8016 169.37 30.7366Z" fill="white"/>
<path d="M20.1865 22.6725H14.3613V39.6185H31.0872V34.1256H20.1865V22.6725Z" fill="#33FF00"/>
<path d="M50.8695 36.4631C49.9467 37.6318 48.8509 38.5083 47.4667 39.1511C46.0825 39.7938 44.6406 40.086 43.1987 40.086C41.8145 40.086 40.488 39.8523 39.2191 39.3848C37.9502 38.9173 36.9121 38.2745 35.9893 37.398C35.0665 36.5215 34.3744 35.5281 33.8553 34.3594C33.3362 33.1908 33.0479 31.8468 33.0479 30.3859C33.0479 28.925 33.3362 27.581 33.8553 26.4124C34.3744 25.2437 35.1242 24.1919 35.9893 23.3738C36.9121 22.4973 38.0079 21.8545 39.2191 21.387C40.4303 20.9195 41.7568 20.6858 43.1987 20.6858C44.5252 20.6858 45.6787 20.9195 46.7746 21.387C47.8127 21.8545 48.7355 22.4973 49.4853 23.3738C50.2351 24.2503 50.8118 25.2437 51.2156 26.4124C51.6193 27.581 51.7923 28.925 51.7923 30.3859V32.1974H38.6423C38.8731 33.3076 39.3345 34.1841 40.0842 34.8269C40.834 35.4697 41.7568 35.8203 42.8526 35.8203C43.7754 35.8203 44.5829 35.5866 45.2173 35.1775C45.8518 34.7685 46.4285 34.2426 46.8899 33.5414L50.8695 36.4631ZM46.1401 28.2823C46.1401 27.2889 45.8518 26.4708 45.2173 25.828C44.5829 25.1268 43.7178 24.7762 42.6796 24.7762C42.0452 24.7762 41.5261 24.8931 41.007 25.0684C40.5456 25.2437 40.1419 25.5358 39.7959 25.828C39.4498 26.1202 39.2191 26.5292 38.9884 26.9383C38.8154 27.3473 38.7 27.8148 38.6423 28.2238H46.1401V28.2823Z" fill="white"/>
<path d="M53.2344 21.1533H59.3479L63.962 33.7167H64.0196L68.3453 21.1533H73.9975L66.7881 39.6186H60.7898L53.2344 21.1533Z" fill="white"/>
<path d="M93.3763 36.4631C92.4535 37.6318 91.3577 38.5083 89.9735 39.1511C88.5893 39.7938 87.1474 40.086 85.7055 40.086C84.3213 40.086 82.9948 39.8523 81.7259 39.3848C80.4571 38.9173 79.4189 38.2745 78.4961 37.398C77.5733 36.5215 76.8812 35.5281 76.3621 34.3594C75.8431 33.1908 75.5547 31.8468 75.5547 30.3859C75.5547 28.925 75.8431 27.581 76.3621 26.4124C76.8812 25.2437 77.631 24.1919 78.4961 23.3738C79.4189 22.4973 80.5148 21.8545 81.7259 21.387C82.9371 20.9195 84.2637 20.6858 85.7055 20.6858C87.0321 20.6858 88.1856 20.9195 89.2814 21.387C90.3196 21.8545 91.2424 22.4973 91.9921 23.3738C92.7419 24.2503 93.3187 25.2437 93.7224 26.4124C94.1261 27.581 94.2991 28.925 94.2991 30.3859V32.1974H81.2069C81.4376 33.3076 81.899 34.1841 82.6487 34.8269C83.3985 35.4697 84.3213 35.8203 85.4172 35.8203C86.34 35.8203 87.1474 35.5866 87.7818 35.1775C88.4163 34.7685 88.993 34.2426 89.4544 33.5414L93.3763 36.4631ZM88.5893 28.2823C88.5893 27.2889 88.3009 26.4708 87.6665 25.828C87.0321 25.1268 86.1669 24.7762 85.1288 24.7762C84.4944 24.7762 83.9753 24.8931 83.4562 25.0684C82.9948 25.2437 82.5911 25.5358 82.245 25.828C81.899 26.1202 81.6683 26.5292 81.4376 26.9383C81.2645 27.3473 81.1492 27.8148 81.0915 28.2238H88.5893V28.2823Z" fill="white"/>
<path d="M103.354 12.6803H97.7017V39.6186H103.354V12.6803Z" fill="white"/>
<path d="M20.2442 12.6803H14.3613V22.6726H20.2442V12.6803Z" fill="white"/>
</svg>
